module github.com/dolthub/go-mysql-server

require (
	github.com/cespare/xxhash v1.1.0
	github.com/dolthub/sqllogictest/go v0.0.0-20201107003712-816f3ae12d81
	github.com/dolthub/vitess v0.0.0-20220303010604-8346d4291a4f
	github.com/go-kit/kit v0.10.0
	github.com/go-sql-driver/mysql v1.6.0
	github.com/gocraft/dbr/v2 v2.7.2
	github.com/golang/glog v0.0.0-20210429001901-424d2337a529
	github.com/google/uuid v1.2.0
	github.com/hashicorp/golang-lru v0.5.4
	github.com/lestrrat-go/strftime v1.0.4
	github.com/mitchellh/hashstructure v1.1.0
	github.com/oliveagle/jsonpath v0.0.0-20180606110733-2e52cf6e6852
	github.com/opentracing/opentracing-go v1.2.0
	github.com/pkg/errors v0.9.1
	github.com/pmezard/go-difflib v1.0.0
	github.com/shopspring/decimal v1.2.0
	github.com/sirupsen/logrus v1.8.1
	github.com/src-d/go-oniguruma v1.1.0
	github.com/stretchr/testify v1.7.0
	golang.org/x/sync v0.0.0-20210220032951-036812b2e83c
	golang.org/x/text v0.3.7
	golang.org/x/tools v0.1.9
	gopkg.in/src-d/go-errors.v1 v1.0.0
)

require (
	github.com/davecgh/go-spew v1.1.1 // indirect
	github.com/golang/protobuf v1.5.2 // indirect
	github.com/kr/text v0.2.0 // indirect
	github.com/niemeyer/pretty v0.0.0-20200227124842-a10e7caefd8e // indirect
	golang.org/x/mod v0.5.1 // indirect
	golang.org/x/sys v0.0.0-20211019181941-9d821ace8654 // indirect
	golang.org/x/xerrors v0.0.0-20200804184101-5ec99f83aff1 // indirect
	google.golang.org/genproto v0.0.0-20210506142907-4a47615972c2 // indirect
	google.golang.org/grpc v1.37.0 // indirect
	google.golang.org/protobuf v1.27.1 // indirect
	gopkg.in/check.v1 v1.0.0-20200902074654-038fdea0a05b // indirect
	gopkg.in/yaml.v3 v3.0.0-20200615113413-eeeca48fe776 // indirect
)

replace github.com/oliveagle/jsonpath => github.com/dolthub/jsonpath v0.0.0-20210609232853-d49537a30474

go 1.17
